{"patients": {"patient": [
    {
        "gender": "m",
        "name": "John Smith",
        "dateOfBirth": "03/04/1962",
        "id": 1234,
        "state": "Michigan"
    },
    {
        "gender": "f",
        "name": "Jane Smith",
        "dateOfBirth": "08/24/1971",
        "id": 5678,
        "state": "Ohio"
    }
]}}